{
  "project_info": {
    "project_number": "850180142040",
    "firebase_url": "https://nonameandroid-dc09f.firebaseio.com",
    "project_id": "nonameandroid-dc09f",
    "storage_bucket": "nonameandroid-dc09f.appspot.com"
  },
  "client": [
    {
      "client_info": {
        "mobilesdk_app_id": "1:850180142040:android:ecd9eccc08686716",
        "android_client_info": {
          "package_name": "com.nicoberangerenico.moviesapp"
        }
      },
      "oauth_client": [
        {
          "client_id": "850180142040-jtnlebd3vhl9itahhi89c9sqf1i0s5rc.apps.googleusercontent.com",
          "client_type": 1,
          "android_info": {
            "package_name": "com.nicoberangerenico.moviesapp",
            "certificate_hash": "eac7a5d8c60f28df457be5373bbd146511e5faf1"
          }
        },
        {
          "client_id": "850180142040-h24p3qt5s473aefpak7arro40prcs4eu.apps.googleusercontent.com",
          "client_type": 3
        }
      ],
      "api_key": [
        {
          "current_key": "AIzaSyAmoebN6KXZyNEblEucDKg8B3b2Gapa1tk"
        }
      ],
      "services": {
        "analytics_service": {
          "status": 1
        },
        "appinvite_service": {
          "status": 2,
          "other_platform_oauth_client": [
            {
              "client_id": "850180142040-h24p3qt5s473aefpak7arro40prcs4eu.apps.googleusercontent.com",
              "client_type": 3
            }
          ]
        },
        "ads_service": {
          "status": 2
        }
      }
    }
  ],
  "configuration_version": "1"
}